^C:\USERS\SYSTEMX\DESKTOP\15\X64\DEBUG\15.OBJ
/OUT:"C:\USERS\SYSTEMX\DESKTOP\15\X64\DEBUG\15.EXE" /INCREMENTAL /ILK:"X64\DEBUG\15.ILK" /NOLOGO KERNEL32.LIB USER32.LIB GDI32.LIB WINSPOOL.LIB COMDLG32.LIB ADVAPI32.LIB SHELL32.LIB OLE32.LIB OLEAUT32.LIB UUID.LIB ODBC32.LIB ODBCCP32.LIB /MANIFEST /MANIFESTUAC:"level='asInvoker' uiAccess='false'" /manifest:embed /DEBUG /PDB:"C:\USERS\SYSTEMX\DESKTOP\15\X64\DEBUG\15.PDB" /SUBSYSTEM:CONSOLE /TLBID:1 /DYNAMICBASE /NXCOMPAT /IMPLIB:"C:\USERS\SYSTEMX\DESKTOP\15\X64\DEBUG\15.LIB" /MACHINE:X64 X64\DEBUG\15.OBJ
^C:\USERS\SYSTEMX\DOWNLOADS\15.4-MASTER\15.4-MASTER\X64\DEBUG\15.OBJ
/OUT:"C:\USERS\SYSTEMX\DOWNLOADS\15.4-MASTER\15.4-MASTER\X64\DEBUG\15.EXE" /INCREMENTAL /ILK:"X64\DEBUG\15.ILK" /NOLOGO KERNEL32.LIB USER32.LIB GDI32.LIB WINSPOOL.LIB COMDLG32.LIB ADVAPI32.LIB SHELL32.LIB OLE32.LIB OLEAUT32.LIB UUID.LIB ODBC32.LIB ODBCCP32.LIB /MANIFEST /MANIFESTUAC:"level='asInvoker' uiAccess='false'" /manifest:embed /DEBUG /PDB:"C:\USERS\SYSTEMX\DOWNLOADS\15.4-MASTER\15.4-MASTER\X64\DEBUG\15.PDB" /SUBSYSTEM:CONSOLE /TLBID:1 /DYNAMICBASE /NXCOMPAT /IMPLIB:"C:\USERS\SYSTEMX\DOWNLOADS\15.4-MASTER\15.4-MASTER\X64\DEBUG\15.LIB" /MACHINE:X64 X64\DEBUG\15.OBJ
